{
  "status": "completed",
  "completed": "2023-09-08T18:59:10.742218Z",
  "created": "2023-09-08T18:59:09.974611Z",
  "error": null,
  "id": "aaaaaaaa-bbbb-cccc-dddd-eeeeeeeeeee",
  "result": {
    "metadata": {
      "observation_date": "2023-09-06"
    },
    "raw": "https://dynacrop-data.s3.amazonaws.com/00000000000000000aaaaaaaaaaaaaaaaaaaaf/observation_raw.tiff",
    "color": "https://api-dynacrop.worldfromspace.cz/api/file/color/00000000000000000aaaaaaaaaaaaaaaaaaaaf.tiff?style=NDVI&min_value=0.2&max_value=1.0&num_values=8",
    "png": "https://api-dynacrop.worldfromspace.cz/api/file/png/00000000000000000aaaaaaaaaaaaaaaaaaaaf.png?style=NDVI&min_value=0.2&max_value=1.0&num_values=8",
    "tiles_color": "https://tiler.worldfromspace.cz/{z}/{x}/{y}.png?url=https%3A%2F%2Fapi-dynacrop.worldfromspace.cz%2Fapi%2Ffile%2Fcolor%2F00000000000000000aaaaaaaaaaaaaaaaaaaaf.tiff%3Fstyle%3DNDVI%26min_value%3D0.2%26max_value%3D1.0%26num_values%3D8&nodata=0&resampling_method=nearest",
    "tiles_demo": "https://dynacrop.worldfromspace.cz/viewer.html?url=https%3A%2F%2Fapi-dynacrop.worldfromspace.cz%2Fapi%2Ffile%2Fcolor%2F00000000000000000aaaaaaaaaaaaaaaaaaaaf.tiff%3Fstyle%3DNDVI%26min_value%3D0.2%26max_value%3D1.0%26num_values%3D8",
    "shp": "https://api-dynacrop.worldfromspace.cz/api/file/shp/00000000000000000aaaaaaaaaaaaaaaaaaaaf.zip",
    "geojson": "https://api-dynacrop.worldfromspace.cz/api/file/geojson/00000000000000000aaaaaaaaaaaaaaaaaaaaf.geojson",
    "statistics": "https://api-dynacrop.worldfromspace.cz/api/v2/statistics/00000000000000000aaaaaaaaaaaaaaaaaaaaf?percentiles=0_10_25_50_75_90_100",
    "frequencies": "https://api-dynacrop.worldfromspace.cz/api/v2/frequencies/00000000000000000aaaaaaaaaaaaaaaaaaaaf?type=observation&bins=10"
  },
  "product": [
    "Sentinel-2",
    "NDVI"
  ],
  "polygon_id": "aaaaaaaa-bbbb-cccc-dddd-fffffffffff",
  "date_from": "2023-09-06",
  "date_to": "2023-09-06"
}
